HW 01 - Global plastic waste
…
Smoothed graph.

# Your code below:

plastic_waste %>%
  filter(entity != "Trinidad and Tobago")

## # A tibble: 239 x 10
##    code  entity    conti~1  year gdp_p~2 plast~3 misma~4 misma~5 coast~6 total~7
##    <chr> <chr>     <chr>   <dbl>   <dbl>   <dbl>   <dbl>   <dbl>   <dbl>   <dbl>
##  1 AFG   Afghanis~ Asia     2010   1614.  NA      NA          NA NA       3.14e7
##  2 ALB   Albania   Europe   2010   9927.   0.069   0.032   29705  2.53e6  3.20e6
##  3 DZA   Algeria   Africa   2010  12871.   0.144   0.086  520555  1.66e7  3.55e7
##  4 ASM   American~ Oceania  2010     NA   NA      NA          NA NA       6.84e4
##  5 AND   Andorra   Europe   2010     NA   NA      NA          NA NA       8.49e4
##  6 AGO   Angola    Africa   2010   5898.   0.062   0.045   62528  3.79e6  1.91e7
##  7 AIA   Anguilla  North ~  2010     NA    0.252   0.01       52  1.46e4  1.54e4
##  8 ATG   Antigua ~ North ~  2010  19213.   0.66    0.051    1253  6.68e4  8.87e4
##  9 ARG   Argentina South ~  2010  18712.   0.183   0.026  157777  1.64e7  4.04e7
## 10 ARM   Armenia   Europe   2010   6703.  NA      NA          NA NA       3.09e6
## # ... with 229 more rows, and abbreviated variable names 1: continent,
## #   2: gdp_per_cap, 3: plastic_waste_per_cap,
## #   4: mismanaged_plastic_waste_per_cap, 5: mismanaged_plastic_waste,
## #   6: coastal_pop, 7: total_pop
## # i Use `print(n = ...)` to see more rows
…
